<?xml version="1.0" encoding="UTF-8" standalone="no"?>
<!DOCTYPE svg PUBLIC "-//W3C//DTD SVG 1.1//EN" "http://www.w3.org/Graphics/SVG/1.1/DTD/svg11.dtd">
<svg width="100%" height="100%" viewBox="0 0 64 64" version="1.1" xmlns="http://www.w3.org/2000/svg" xml:space="preserve"
	 style="fill-rule:evenodd;clip-rule:evenodd;stroke-linejoin:round;stroke-miterlimit:2;">
    <g id="backup" transform="matrix(1.10345,0,0,1.10345,0,-3.31034)">
        <g transform="matrix(0.928571,0,0,0.928571,2.28571,2.28571)">
            <path
				d="M4,32C4,16.546 16.546,4 32,4C47.454,4 60,16.546 60,32C60,47.454 47.454,60 32,60L32,52C43.038,52 52,43.038 52,32C52,20.962 43.038,12 32,12C20.962,12 12,20.962 12,32L4,32Z"
				style="fill:#333;"/>
        </g>
		<g transform="matrix(1.25,0,0,2,0,-32)">
            <path d="M0,32L8,40L16,32L0,32Z" style="fill:#333;"/>
        </g>
    </g>
</svg>