<?xml version="1.0" encoding="UTF-8" standalone="no"?><!DOCTYPE svg PUBLIC "-//W3C//DTD SVG 1.1//EN" "http://www.w3.org/Graphics/SVG/1.1/DTD/svg11.dtd">
<svg width="100%" height="100%" viewBox="0 0 64 64" version="1.1" xmlns="http://www.w3.org/2000/svg"
	 xml:space="preserve" xmlns:serif="http://www.serif.com/"
	 style="fill-rule:evenodd;clip-rule:evenodd;stroke-linecap:round;stroke-linejoin:round;stroke-miterlimit:1.5;"><g id="new"><path id="Form-2" serif:id="Form 2" d="M28,16l8,0l0,12l12,0l0,8l-12,0l0,12l-8,0l0,-12l-12,0l0,-8l12,0l0,-12Z" style="fill:#333;stroke:#333;stroke-width:1px;"/><path id="Form-25" serif:id="Form 25" d="M32,0c17.673,0 32,14.327 32,32c0,17.673 -14.327,32 -32,32c-17.673,0 -32,-14.327 -32,-32c0,-17.673 14.327,-32 32,-32Zm0,8c13.255,0 24,10.745 24,24c0,13.255 -10.745,24 -24,24c-13.255,0 -24,-10.745 -24,-24c0,-13.255 10.745,-24 24,-24Z" style="fill:#333;stroke:#333;stroke-width:1px;"/></g></svg>