<?xml version="1.0" encoding="UTF-8" standalone="no"?>
<!DOCTYPE svg PUBLIC "-//W3C//DTD SVG 1.1//EN" "http://www.w3.org/Graphics/SVG/1.1/DTD/svg11.dtd">
<svg width="100%" height="100%" viewBox="0 0 64 64" version="1.1" xmlns="http://www.w3.org/2000/svg" xml:space="preserve"
	 style="fill-rule:evenodd;clip-rule:evenodd;stroke-miterlimit:1.5;">
    <g>
        <path d="M12,20L12,60L52,60L52,20" style="fill:none;stroke:rgb(51,51,51);stroke-width:8px;"/>
        <path d="M0,12L64,12" style="fill:none;stroke:rgb(51,51,51);stroke-width:8px;"/>
        <g transform="matrix(0.791019,0,0,0.911624,-11.4611,-19.8217)">
            <rect x="49.886" y="21.743" width="10.114" height="8.776" style="fill:rgb(51,51,51);"/>
        </g>
    </g>
</svg>
