<?xml version="1.0" encoding="UTF-8" standalone="no"?><!DOCTYPE svg PUBLIC "-//W3C//DTD SVG 1.1//EN" "http://www.w3.org/Graphics/SVG/1.1/DTD/svg11.dtd">
<svg width="100%" height="100%" viewBox="0 0 64 64" version="1.1" xmlns="http://www.w3.org/2000/svg"
	 xml:space="preserve"
	 style="fill-rule:evenodd;clip-rule:evenodd;stroke-linejoin:round;stroke-miterlimit:2;"><g id="upload"><path d="M49.657,36l-5.657,5.657l-12,-12l-12,12l-5.657,-5.657l17.657,-17.657l17.657,17.657Z" style="fill:#333;"/><path id="Page" d="M64,20l0,44l-64,0l0,-64l44,0l20,20Zm-56,36l48,0l0,-32.686l-15.314,-15.314l-32.686,0l0,48Z" style="fill:#333;"/></g></svg>