<?xml version="1.0" encoding="UTF-8" standalone="no"?>
<!DOCTYPE svg PUBLIC "-//W3C//DTD SVG 1.1//EN" "http://www.w3.org/Graphics/SVG/1.1/DTD/svg11.dtd">
<svg width="100%" height="100%" viewBox="0 0 64 64" version="1.1" xmlns="http://www.w3.org/2000/svg" xml:space="preserve"
	 xmlns:serif="http://www.serif.com/" style="fill-rule:evenodd;clip-rule:evenodd;stroke-miterlimit:1.5;">
    <g id="new-Window" serif:id="new Window">
        <g transform="matrix(0.65625,0,0,0.65625,4,18)">
            <path d="M-6.095,-9.143L73.143,-9.143L73.143,70.095L-6.095,70.095L-6.095,-9.143ZM6.095,3.048L6.095,57.905L60.952,57.905L60.952,3.048L6.095,3.048Z" style="fill:rgb(51,51,51);"/>
        </g>
        <path d="M16,4L60,4L60,48" style="fill:none;stroke:rgb(51,51,51);stroke-width:8px;"/>
    </g>
</svg>
